# 3ds Max Wavefront OBJ Exporter v0.99 - (c)2007 guruware
# File Created: 19.08.2023 16:35:56

newmtl f1_Car_material
	Kd 0.5880 0.5880 0.5880
	Ks 0.9000 0.9000 0.9000
	Tr 0.0000
	d 1.0000
	Tf 0.5000 0.5000 0.5000
	Pr 0.0000
	Pm 0.0000
	Pc 180.0000
	Pcr 0.9000
	Ni 1.5000
	illum 2
	map_Kd C:\Users\Neil\Downloads\MAX\Lotus_dif_blackvrsn.jpg
	map_Ks -bm 0.0000 Map__45_Composite.tga
	map_d C:\Users\Neil\Downloads\MAX\Lotus_opacity.jpg
	map_Ke C:\Users\Neil\Downloads\MAX\Lotus_self_illumintn.jpg
	bump C:\Users\Neil\Downloads\MAX\Lotus_bump.jpg
	map_bump C:\Users\Neil\Downloads\MAX\Lotus_bump.jpg
